^F:\MOTIONDEV\DMMREC\TEST0815\WTESTDEV\TESTOGL1\CONNECTDOTS.C
F:\MOTIONDEV\DMMREC\TEST0815\WTESTDEV\TESTOGL1\DEBUG\VC141.PDB
F:\MOTIONDEV\DMMREC\TEST0815\WTESTDEV\TESTOGL1\DEBUG\VC141.IDB
F:\MOTIONDEV\DMMREC\TEST0815\WTESTDEV\TESTOGL1\DEBUG\CONNECTDOTS.OBJ
